Gov 50 Final Project
…
data |>
  filter(RestaurantName == "Dunkin")

# A tibble: 9,346 × 14
   RestaurantN…¹ Cuisine OpenH…² State CNTY_…³ CNTY_…⁴ UA_GE…⁵ UA_NAME
   <chr>         <chr>   <chr>   <chr> <chr>   <chr>   <chr>   <chr>  
 1 Dunkin        Cafe    Sun  T… OH    39085   Lake    17668   Clevel…
 2 Dunkin        Restau… <NA>    SC    45051   Horry   60895   Myrtle…
 3 Dunkin        Restau… Sun  S… OH    39173   Wood    09433   Bowlin…
 4 Dunkin        Cafe    Sun  S… IL    17031   Cook    16264   Chicag…
 5 Dunkin        Restau… Sun 60… CA    06037   Los An… 51445   Los An…
 6 Dunkin        Americ… Mon  F… RI    44003   Kent    72505   Provid…
 7 Dunkin        Restau… Sun  S… FL    12099   Palm B… 56602   Miami,…
 8 Dunkin        Americ… Sun  S… FL    12099   Palm B… 56602   Miami,…
 9 Dunkin        Restau… Mon  F… IL    17089   Kane    16264   Chicag…
10 Dunkin        Restau… Sun  S… PA    42069   Lackaw… 80227   Scrant…
# … with 9,336 more rows, 6 more variables: MSA_GEOID <dbl>,
#   MSA_NAME <chr>, Lon <dbl>, Lat <dbl>, Frequency <dbl>,
#   isChain <dbl>, and abbreviated variable names ¹​RestaurantName,
#   ²​OpenHours, ³​CNTY_GEOID, ⁴​CNTY_NAME, ⁵​UA_GEOID
…
                  "Baltimore, MD", "Bowie, MD", "Laurel, MD", "Frostburg, MD", "Frederick, MD", "Capitol Heights, MD", "Westminster, MD", "Emmitsburg, MD", "Salisbury, MD", "Annapolis, MD", "St. Mary’s City, MD", "Saint Mary’s City, MD", "Stevenson, MD", "Suitland, MD", "Townson, MD", "Princess Anne, MD", "Adelphi, MD", "College Park, MD", "Takoma Park, MD", "Chestertown, MD", "Silver Spring, MD",
                  
                  "Cambridge, MA", "Boston, MA", "Springfield, MA", "Amherst, MA", "Paxton, MA", "Worcester, MA", "Wellesley, MA", "Great Barrington, MA", "Longmeadow, MA", "Waltham, MA", "Chestnut Hill, MA", "Bridgewater, MA", "Chicopee, MA", "Milton, MA", "Franklin, MA", "Quincy, MA", "Beverly, MA", "Fitchburg, MA", "Framingham, MA", "Needham, MA", "Wenham, MA", "Brookline, MA", "Newton Centre, MA", "Newton, MA", "North Adams, MA", "Buzzards Bay, MA", "North Andover, MA", "South Hadley, MA", "Dudley, MA", "Haverhill, MA", "Weston, MA", "Brighton, MA", "Salem, MA", "Northampton, MA", "Easton, MA", "Medford, MA", "North Dartmouth, MA", "Lowell, MA", "Norton, MA", "Williamstown, MA",
                  
                  "Adrian, MI", "Albion, MI", "Alma, MI", "Alpena, MI", "Berrien Springs, MI", "Grand Rapids, MI", "Owosso, MI", "Brimley, MI", "Mount Pleasant, MI", "Troy, MI", "Howell, MI", "Detroit, MI", "Ann Arbor, MI", "Ypsilanti, MI", "Big Rapids, MI", "Hancock, MI", "Wyoming, MI", "Allendale, MI", "Lansing, MI", "Dearborn, MI", "Hillsdale, MI", "Holland, MI", "Jackson, MI", "Kalamazoo, MI", "Flint, MI", "Benton Harbor, MI", "Sault Ste Marie, MI", "Southfield, MI", "Livonia, MI", "East Lansing, MI", "Houghton, MI", "Marquette, MI", "Traverse City, MI", "Midland, MI", "Rochester Hills, MI", "Olivet, MI", "University Center, MI", "Novi, MI", "Spring Arbor, MI", "Southfield, MI", "Oak Park, MI"

                  )

data <- data |>
  mutate(
        college_town = if_else(UA_NAME %in% college_towns, 1, 0))

data

# A tibble: 705,621 × 15
   RestaurantN…¹ Cuisine OpenH…² State CNTY_…³ CNTY_…⁴ UA_GE…⁵ UA_NAME
   <chr>         <chr>   <chr>   <chr> <chr>   <chr>   <chr>   <chr>  
 1 Subway        Restau… Sun 90… OK    40143   Tulsa   88948   Tulsa,…
 2 Subway        Restau… Sun 10… OH    39133   Portage 17668   Clevel…
 3 Subway        Restau… Sun  S… IL    17031   Cook    16264   Chicag…
 4 Subway        Restau… Sun  S… AR    05085   Lonoke  50392   Little…
 5 Subway        Restau… <NA>    IL    17031   Cook    16264   Chicag…
 6 Subway        Restau… Sun 90… DC    11001   Distri… 92242   Washin…
 7 Subway        Restau… Mon  F… FL    12001   Alachua <NA>    <NA>   
 8 Subway        Deli F… Thu 10… KY    21179   Nelson  05059   Bardst…
 9 Subway        Restau… Sun  S… NY    36119   Westch… 63217   New Yo…
10 Subway        Deli    Sun 90… KY    21015   Boone   16885   Cincin…
# … with 705,611 more rows, 7 more variables: MSA_GEOID <dbl>,
#   MSA_NAME <chr>, Lon <dbl>, Lat <dbl>, Frequency <dbl>,
#   isChain <dbl>, college_town <dbl>, and abbreviated variable names
#   ¹​RestaurantName, ²​OpenHours, ³​CNTY_GEOID, ⁴​CNTY_NAME, ⁵​UA_GEOID

data_not_college_town <- data |>
  filter(college_town == 0)

non_college_towns <- as.tibble(unique(data_not_college_town$UA_NAME))

non_college_towns

# A tibble: 2,948 × 1
   value                       
   <chr>                       
 1 Chicago, IL--IN             
 2 Washington, DC--VA--MD      
 3 <NA>                        
 4 Bardstown, KY               
 5 New York--Newark, NY--NJ--CT
 6 Cincinnati, OH--KY--IN      
 7 Sparta, WI                  
 8 Hallsville, TX              
 9 Urban Honolulu, HI          
10 McGehee, AR                 
# … with 2,938 more rows

print(non_college_towns)

# A tibble: 2,948 × 1
   value                       
   <chr>                       
 1 Chicago, IL--IN             
 2 Washington, DC--VA--MD      
 3 <NA>                        
 4 Bardstown, KY               
 5 New York--Newark, NY--NJ--CT
 6 Cincinnati, OH--KY--IN      
 7 Sparta, WI                  
 8 Hallsville, TX              
 9 Urban Honolulu, HI          
10 McGehee, AR                 
# … with 2,938 more rows
